{
    "Version": "2012-10-17",
    "Statement": [
      {
        "Action": "logs:*",
        "Effect": "Allow",
        "Resource": "*"
      },
      {
        "Action": "xray:*",
        "Effect": "Allow",
        "Resource": "*"
      },
      {
        "Action": "lambda:*",
        "Effect": "Allow",
        "Resource": "*"
      },
      {
        "Action": "ssm:*",
        "Effect": "Allow",
        "Resource": "*"
      },
      {
        "Action": "es:*",
        "Effect": "Allow",
        "Resource": "*"
      },
      {
        "Action": "secretsmanager:*",
        "Effect": "Allow",
        "Resource": "*"
      },
      {
        "Action": "rds:*",
        "Effect": "Allow",
        "Resource": "*"
      },
      {
        "Action": "rds-data:*",
        "Effect": "Allow",
        "Resource": "*"
      }
    ]
  }